ctrl_tracking/NewFile4.csv

X,CH1,Start,Increment,
Sequence,Volt,-4.199998e-02,5.000000e-06
0,4.96e+00,
1,4.92e+00,
2,4.92e+00,
3,4.92e+00,
4,4.96e+00,
5,4.96e+00,
6,4.96e+00,
7,4.92e+00,
8,4.96e+00,
9,4.92e+00,
10,4.92e+00,
11,4.92e+00,
12,4.92e+00,
13,4.92e+00,
14,4.96e+00,
15,4.92e+00,
16,4.92e+00,
17,4.92e+00,
18,4.92e+00,
19,4.84e+00,
20,4.96e+00,
21,4.92e+00,
22,4.92e+00,
23,4.92e+00,
24,4.92e+00,
25,4.92e+00,
26,4.92e+00,
27,4.92e+00,
28,4.92e+00,
29,4.92e+00,
30,4.96e+00,
31,4.92e+00,
32,4.96e+00,
33,4.92e+00,
34,4.88e+00,
35,4.92e+00,
36,4.92e+00,
37,4.92e+00,
38,4.92e+00,
39,4.96e+00,
40,4.92e+00,
41,4.92e+00,
42,4.92e+00,
43,4.92e+00,
44,4.96e+00,
45,4.68e+00,
46,4.92e+00,
47,4.92e+00,
48,4.96e+00,
49,4.96e+00,
50,4.92e+00,
51,4.92e+00,
52,4.96e+00,
53,4.96e+00,
54,4.92e+00,
55,4.96e+00,
56,4.96e+00,
57,4.92e+00,
58,4.96e+00,
59,4.92e+00,
60,4.96e+00,
61,4.96e+00,
62,4.92e+00,
63,4.92e+00,
64,4.92e+00,
65,4.92e+00,
66,5.20e+00,
67,4.96e+00,
68,4.92e+00,
69,4.92e+00,
70,4.96e+00,
71,4.92e+00,
72,4.92e+00,
73,4.92e+00,
74,5.00e+00,
75,4.92e+00,
76,4.96e+00,
77,4.92e+00,
78,4.92e+00,
79,4.92e+00,
80,5.12e+00,
81,4.92e+00,
82,4.88e+00,
83,4.92e+00,
84,4.92e+00,
85,4.92e+00,
86,4.92e+00,
87,4.84e+00,
88,4.96e+00,
89,4.92e+00,
90,4.96e+00,
91,4.96e+00,
92,4.96e+00,
93,4.92e+00,
94,4.96e+00,
95,4.92e+00,
96,4.96e+00,
97,4.92e+00,
98,4.92e+00,
99,4.92e+00,
100,4.96e+00,
101,4.92e+00,
102,4.96e+00,
103,4.96e+00,
104,4.96e+00,
105,4.92e+00,
106,4.92e+00,
107,4.96e+00,
108,5.04e+00,
109,4.92e+00,
110,4.96e+00,
111,4.92e+00,
112,4.92e+00,
113,4.92e+00,
114,4.96e+00,
115,4.92e+00,
116,4.92e+00,
117,4.92e+00,
118,4.96e+00,
119,4.92e+00,
120,4.96e+00,
121,4.84e+00,
122,4.92e+00,
123,4.92e+00,
124,4.92e+00,
125,4.96e+00,
126,4.96e+00,
127,4.92e+00,
128,4.96e+00,
129,4.92e+00,
130,4.96e+00,
131,4.92e+00,
132,4.92e+00,
133,4.92e+00,
134,4.92e+00,
135,4.92e+00,
136,4.92e+00,
137,4.92e+00,
138,4.96e+00,
139,4.92e+00,
140,4.92e+00,
141,4.92e+00,
142,4.92e+00,
143,4.92e+00,
144,4.92e+00,
145,4.92e+00,
146,4.92e+00,
147,4.92e+00,
148,4.92e+00,
149,4.92e+00,
150,4.92e+00,
151,4.92e+00,
152,4.96e+00,
153,4.88e+00,
154,4.92e+00,
155,4.96e+00,
156,4.92e+00,
157,4.92e+00,
158,4.96e+00,
159,4.96e+00,
160,4.92e+00,
161,4.92e+00,
162,4.96e+00,
163,4.92e+00,
164,4.92e+00,
165,4.92e+00,
166,4.96e+00,
167,5.00e+00,
168,4.92e+00,
169,4.88e+00,
170,5.28e+00,
171,4.96e+00,
172,4.92e+00,
173,4.92e+00,
174,4.92e+00,
175,4.92e+00,
176,4.92e+00,
177,4.92e+00,
178,4.96e+00,
179,4.92e+00,
180,4.96e+00,
181,4.92e+00,
182,4.96e+00,
183,4.96e+00,
184,4.92e+00,
185,4.92e+00,
186,4.92e+00,
187,4.92e+00,
188,4.92e+00,
189,4.92e+00,
190,4.92e+00,
191,4.80e+00,
192,4.92e+00,
193,4.92e+00,
194,4.96e+00,
195,4.96e+00,
196,4.92e+00,
197,4.92e+00,
198,4.92e+00,
199,4.92e+00,
200,4.92e+00,
201,4.92e+00,
202,4.92e+00,
203,4.92e+00,
204,4.92e+00,
205,4.92e+00,
206,4.92e+00,
207,4.92e+00,
208,4.88e+00,
209,4.92e+00,
210,4.96e+00,
211,4.92e+00,
212,5.12e+00,
213,4.96e+00,
214,4.96e+00,
215,4.92e+00,
216,4.96e+00,
217,4.92e+00,
218,4.92e+00,
219,4.92e+00,
220,4.92e+00,
221,4.92e+00,
222,4.92e+00,
223,4.92e+00,
224,4.92e+00,
225,4.96e+00,
226,4.96e+00,
227,4.96e+00,
228,4.96e+00,
229,4.92e+00,
230,4.96e+00,
231,4.92e+00,
232,4.96e+00,
233,4.92e+00,
234,4.88e+00,
235,4.96e+00,
236,4.92e+00,
237,4.96e+00,
238,4.92e+00,
239,4.92e+00,
240,4.92e+00,
241,4.92e+00,
242,4.92e+00,
243,4.96e+00,
244,4.92e+00,
245,4.92e+00,
246,4.96e+00,
247,4.96e+00,
248,4.96e+00,
249,4.96e+00,
250,4.88e+00,
251,4.68e+00,
252,4.96e+00,
253,4.92e+00,
254,4.92e+00,
255,4.92e+00,
256,4.96e+00,
257,4.92e+00,
258,4.92e+00,
259,4.92e+00,
260,4.96e+00,
261,4.92e+00,
262,4.92e+00,
263,4.92e+00,
264,4.92e+00,
265,4.96e+00,
266,4.92e+00,
267,4.92e+00,
268,4.96e+00,
269,4.92e+00,
270,4.96e+00,
271,4.92e+00,
272,4.92e+00,
273,7.20e-01,
274,7.20e-01,
275,8.00e-01,
276,7.20e-01,
277,7.20e-01,
278,7.60e-01,
279,7.20e-01,
280,7.20e-01,
281,7.20e-01,
282,7.20e-01,
283,7.20e-01,
284,7.60e-01,
285,7.20e-01,
286,7.20e-01,
287,7.20e-01,
288,7.20e-01,
289,7.20e-01,
290,7.20e-01,
291,7.20e-01,
292,7.20e-01,
293,1.32e+00,
294,4.84e+00,
295,4.68e+00,
296,4.96e+00,
297,4.96e+00,
298,4.92e+00,
299,4.92e+00,
300,4.96e+00,
301,4.92e+00,
302,4.96e+00,
303,4.88e+00,
304,4.92e+00,
305,4.92e+00,
306,4.96e+00,
307,4.92e+00,
308,4.92e+00,
309,4.92e+00,
310,4.96e+00,
311,4.92e+00,
312,4.96e+00,
313,4.88e+00,
314,7.20e-01,
315,7.20e-01,
316,7.20e-01,
317,7.60e-01,
318,7.20e-01,
319,6.00e-01,
320,7.60e-01,
321,7.20e-01,
322,7.20e-01,
323,7.20e-01,
324,7.20e-01,
325,7.20e-01,
326,7.60e-01,
327,7.60e-01,
328,7.60e-01,
329,7.20e-01,
330,7.60e-01,
331,7.60e-01,
332,7.60e-01,
333,7.20e-01,
334,7.60e-01,
335,4.20e+00,
336,4.84e+00,
337,4.92e+00,
338,4.96e+00,
339,4.96e+00,
340,5.00e+00,
341,4.92e+00,
342,4.96e+00,
343,4.96e+00,
344,4.96e+00,
345,4.92e+00,
346,4.96e+00,
347,4.92e+00,
348,4.96e+00,
349,4.92e+00,
350,4.96e+00,
351,4.92e+00,
352,4.92e+00,
353,4.92e+00,
354,4.92e+00,
355,4.96e+00,
356,7.20e-01,
357,7.20e-01,
358,7.60e-01,
359,7.20e-01,
360,7.20e-01,
361,7.20e-01,
362,7.20e-01,
363,7.60e-01,
364,7.20e-01,
365,7.20e-01,
366,7.20e-01,
367,8.00e-01,
368,7.60e-01,
369,7.60e-01,
370,7.60e-01,
371,7.20e-01,
372,7.20e-01,
373,7.60e-01,
374,7.20e-01,
375,7.20e-01,
376,7.60e-01,
377,4.84e+00,
378,4.92e+00,
379,4.92e+00,
380,4.92e+00,
381,4.96e+00,
382,4.96e+00,
383,4.96e+00,
384,4.96e+00,
385,4.92e+00,
386,4.96e+00,
387,4.96e+00,
388,4.92e+00,
389,4.92e+00,
390,4.96e+00,
391,4.96e+00,
392,4.92e+00,
393,4.96e+00,
394,4.96e+00,
395,4.96e+00,
396,4.92e+00,
397,6.40e-01,
398,7.60e-01,
399,7.60e-01,
400,7.60e-01,
401,7.60e-01,
402,7.60e-01,
403,7.60e-01,
404,8.00e-01,
405,7.20e-01,
406,6.80e-01,
407,7.60e-01,
408,7.60e-01,
409,7.20e-01,
410,7.20e-01,
411,7.20e-01,
412,7.20e-01,
413,6.80e-01,
414,8.00e-01,
415,7.20e-01,
416,7.20e-01,
417,7.20e-01,
418,3.36e+00,
419,4.88e+00,
420,4.96e+00,
421,4.92e+00,
422,4.92e+00,
423,4.80e+00,
424,4.96e+00,
425,4.92e+00,
426,4.96e+00,
427,4.92e+00,
428,4.96e+00,
429,4.96e+00,
430,5.00e+00,
431,4.88e+00,
432,4.96e+00,
433,4.96e+00,
434,5.00e+00,
435,4.92e+00,
436,4.92e+00,
437,4.92e+00,
438,4.92e+00,
439,7.20e-01,
440,7.20e-01,
441,7.60e-01,
442,7.60e-01,
443,7.20e-01,
444,7.60e-01,
445,7.60e-01,
446,7.60e-01,
447,7.20e-01,
448,7.20e-01,
449,7.20e-01,
450,7.60e-01,
451,7.20e-01,
452,7.20e-01,
453,7.20e-01,
454,7.60e-01,
455,7.20e-01,
456,7.20e-01,
457,7.20e-01,
458,8.40e-01,
459,8.00e-01,
460,4.60e+00,
461,4.92e+00,
462,4.92e+00,
463,4.92e+00,
464,5.04e+00,
465,4.96e+00,
466,5.00e+00,
467,4.92e+00,
468,4.96e+00,
469,4.96e+00,
470,4.92e+00,
471,4.96e+00,
472,4.96e+00,
473,4.88e+00,
474,4.92e+00,
475,4.92e+00,
476,4.96e+00,
477,4.96e+00,
478,4.96e+00,
479,4.92e+00,
480,4.96e+00,
481,6.40e-01,
482,7.60e-01,
483,7.20e-01,
484,7.60e-01,
485,7.60e-01,
486,7.20e-01,
487,7.20e-01,
488,7.20e-01,
489,6.80e-01,
490,7.20e-01,
491,7.60e-01,
492,7.20e-01,
493,7.60e-01,
494,7.60e-01,
495,7.20e-01,
496,7.20e-01,
497,7.20e-01,
498,7.60e-01,
499,7.20e-01,
500,7.20e-01,
501,7.20e-01,
502,7.20e-01,
503,7.20e-01,
504,7.60e-01,
505,7.60e-01,
506,7.60e-01,
507,7.60e-01,
508,7.20e-01,
509,7.20e-01,
510,7.20e-01,
511,7.60e-01,
512,8.00e-01,
513,7.60e-01,
514,7.20e-01,
515,7.60e-01,
516,7.60e-01,
517,7.20e-01,
518,7.60e-01,
519,7.60e-01,
520,7.60e-01,
521,7.20e-01,
522,3.40e+00,
523,4.88e+00,
524,4.96e+00,
525,4.96e+00,
526,4.88e+00,
527,4.92e+00,
528,4.92e+00,
529,4.92e+00,
530,4.96e+00,
531,4.96e+00,
532,4.92e+00,
533,4.88e+00,
534,4.92e+00,
535,4.92e+00,
536,4.96e+00,
537,4.92e+00,
538,4.96e+00,
539,4.92e+00,
540,4.92e+00,
541,4.92e+00,
542,5.00e+00,
543,7.20e-01,
544,7.60e-01,
545,7.20e-01,
546,6.80e-01,
547,7.20e-01,
548,7.60e-01,
549,7.20e-01,
550,7.20e-01,
551,8.80e-01,
552,7.20e-01,
553,7.20e-01,
554,7.60e-01,
555,6.80e-01,
556,7.20e-01,
557,7.60e-01,
558,7.20e-01,
559,7.60e-01,
560,6.80e-01,
561,8.00e-01,
562,7.20e-01,
563,7.20e-01,
564,4.64e+00,
565,4.92e+00,
566,4.96e+00,
567,4.92e+00,
568,4.96e+00,
569,4.96e+00,
570,4.92e+00,
571,4.96e+00,
572,4.96e+00,
573,4.92e+00,
574,4.96e+00,
575,4.92e+00,
576,4.96e+00,
577,4.92e+00,
578,4.96e+00,
579,4.96e+00,
580,4.96e+00,
581,4.92e+00,
582,4.96e+00,
583,4.92e+00,
584,4.96e+00,
585,7.20e-01,
586,7.20e-01,
587,7.60e-01,
588,7.60e-01,
589,7.20e-01,
590,7.20e-01,
591,7.20e-01,
592,7.60e-01,
593,7.60e-01,
594,7.60e-01,
595,7.60e-01,
596,6.40e-01,
597,7.20e-01,
598,7.20e-01,
599,7.20e-01,
600,7.20e-01,
601,7.20e-01,
602,7.20e-01,
603,7.20e-01,
604,7.20e-01,
605,1.40e+00,
606,4.84e+00,
607,4.92e+00,
608,4.96e+00,
609,5.00e+00,
610,5.00e+00,
611,4.96e+00,
612,4.88e+00,
613,4.88e+00,
614,4.96e+00,
615,4.96e+00,
616,4.92e+00,
617,4.92e+00,
618,4.92e+00,
619,4.92e+00,
620,4.92e+00,
621,4.92e+00,
622,4.96e+00,
623,4.92e+00,
624,4.92e+00,
625,4.96e+00,
626,6.80e-01,
627,7.20e-01,
628,7.20e-01,
629,7.20e-01,
630,7.60e-01,
631,7.20e-01,
632,7.20e-01,
633,7.60e-01,
634,7.60e-01,
635,7.60e-01,
636,7.20e-01,
637,7.60e-01,
638,7.60e-01,
639,7.20e-01,
640,7.20e-01,
641,8.40e-01,
642,7.20e-01,
643,7.20e-01,
644,7.20e-01,
645,7.60e-01,
646,7.60e-01,
647,4.24e+00,
648,4.88e+00,
649,5.00e+00,
650,4.92e+00,
651,4.92e+00,
652,4.92e+00,
653,4.92e+00,
654,4.96e+00,
655,4.92e+00,
656,4.92e+00,
657,4.96e+00,
658,4.96e+00,
659,4.88e+00,
660,4.96e+00,
661,4.96e+00,
662,4.96e+00,
663,4.88e+00,
664,4.96e+00,
665,4.92e+00,
666,4.96e+00,
667,4.92e+00,
668,4.92e+00,
669,4.92e+00,
670,4.92e+00,
671,4.92e+00,
672,4.92e+00,
673,4.92e+00,
674,4.96e+00,
675,4.92e+00,
676,4.92e+00,
677,4.92e+00,
678,4.92e+00,
679,4.88e+00,
680,4.96e+00,
681,4.92e+00,
682,4.92e+00,
683,4.92e+00,
684,4.92e+00,
685,4.92e+00,
686,4.92e+00,
687,4.92e+00,
688,4.92e+00,
689,7.20e-01,
690,7.20e-01,
691,7.20e-01,
692,7.20e-01,
693,7.20e-01,
694,7.20e-01,
695,7.20e-01,
696,7.20e-01,
697,6.00e-01,
698,7.20e-01,
699,7.60e-01,
700,7.60e-01,
701,7.20e-01,
702,7.20e-01,
703,7.20e-01,
704,7.20e-01,
705,6.00e-01,
706,7.20e-01,
707,7.20e-01,
708,7.60e-01,
709,1.48e+00,
710,4.80e+00,
711,4.92e+00,
712,4.92e+00,
713,4.88e+00,
714,4.92e+00,
715,4.92e+00,
716,4.92e+00,
717,4.92e+00,
718,4.92e+00,
719,4.88e+00,
720,4.80e+00,
721,4.96e+00,
722,4.92e+00,
723,4.92e+00,
724,4.92e+00,
725,4.92e+00,
726,4.92e+00,
727,4.92e+00,
728,4.92e+00,
729,4.92e+00,
730,7.20e-01,
731,7.20e-01,
732,7.20e-01,
733,7.20e-01,
734,7.20e-01,
735,7.20e-01,
736,7.20e-01,
737,7.20e-01,
738,7.20e-01,
739,7.20e-01,
740,7.20e-01,
741,7.60e-01,
742,7.20e-01,
743,7.20e-01,
744,7.20e-01,
745,7.20e-01,
746,8.00e-01,
747,7.20e-01,
748,7.20e-01,
749,7.20e-01,
750,7.20e-01,
751,7.20e-01,
752,7.20e-01,
753,6.80e-01,
754,7.20e-01,
755,7.20e-01,
756,7.20e-01,
757,7.20e-01,
758,7.20e-01,
759,7.20e-01,
760,7.20e-01,
761,7.20e-01,
762,7.20e-01,
763,7.20e-01,
764,7.20e-01,
765,7.20e-01,
766,7.20e-01,
767,7.20e-01,
768,7.20e-01,
769,7.20e-01,
770,7.20e-01,
771,7.20e-01,
772,7.20e-01,
773,7.20e-01,
774,7.20e-01,
775,7.20e-01,
776,7.20e-01,
777,7.20e-01,
778,7.20e-01,
779,7.20e-01,
780,7.20e-01,
781,7.20e-01,
782,6.80e-01,
783,7.20e-01,
784,7.20e-01,
785,7.20e-01,
786,7.20e-01,
787,7.20e-01,
788,7.20e-01,
789,7.20e-01,
790,7.20e-01,
791,7.20e-01,
792,6.80e-01,
793,7.20e-01,
794,7.20e-01,
795,7.20e-01,
796,7.20e-01,
797,7.20e-01,
798,7.20e-01,
799,7.20e-01,
800,7.20e-01,
801,7.20e-01,
802,7.60e-01,
803,7.20e-01,
804,7.20e-01,
805,7.20e-01,
806,7.20e-01,
807,6.00e-01,
808,7.20e-01,
809,7.20e-01,
810,7.20e-01,
811,7.20e-01,
812,7.20e-01,
813,7.20e-01,
814,7.20e-01,
815,7.20e-01,
816,7.20e-01,
817,7.20e-01,
818,7.20e-01,
819,7.20e-01,
820,7.60e-01,
821,7.20e-01,
822,7.20e-01,
823,7.20e-01,
824,7.20e-01,
825,7.20e-01,
826,7.20e-01,
827,7.20e-01,
828,7.20e-01,
829,7.20e-01,
830,7.20e-01,
831,7.20e-01,
832,7.20e-01,
833,7.20e-01,
834,7.20e-01,
835,7.20e-01,
836,7.60e-01,
837,7.60e-01,
838,7.20e-01,
839,7.20e-01,
840,7.60e-01,
841,7.60e-01,
842,7.20e-01,
843,7.20e-01,
844,7.20e-01,
845,7.20e-01,
846,7.20e-01,
847,7.60e-01,
848,6.80e-01,
849,7.20e-01,
850,7.20e-01,
851,7.20e-01,
852,7.20e-01,
853,7.60e-01,
854,7.20e-01,
855,7.20e-01,
856,7.20e-01,
857,7.20e-01,
858,7.20e-01,
859,7.20e-01,
860,7.20e-01,
861,7.20e-01,
862,7.20e-01,
863,7.20e-01,
864,7.20e-01,
865,7.20e-01,
866,7.20e-01,
867,7.20e-01,
868,7.20e-01,
869,7.20e-01,
870,7.20e-01,
871,7.20e-01,
872,7.20e-01,
873,7.20e-01,
874,7.60e-01,
875,7.20e-01,
876,4.64e+00,
877,4.92e+00,
878,4.96e+00,
879,4.88e+00,
880,4.92e+00,
881,4.92e+00,
882,4.96e+00,
883,4.92e+00,
884,4.92e+00,
885,4.92e+00,
886,4.92e+00,
887,4.92e+00,
888,4.92e+00,
889,4.96e+00,
890,4.92e+00,
891,4.92e+00,
892,4.96e+00,
893,4.92e+00,
894,4.92e+00,
895,4.92e+00,
896,4.92e+00,
897,7.20e-01,
898,7.20e-01,
899,7.20e-01,
900,7.20e-01,
901,7.20e-01,
902,7.20e-01,
903,7.20e-01,
904,7.20e-01,
905,7.20e-01,
906,7.20e-01,
907,7.20e-01,
908,7.20e-01,
909,7.20e-01,
910,7.20e-01,
911,7.20e-01,
912,7.20e-01,
913,7.20e-01,
914,7.20e-01,
915,7.20e-01,
916,7.20e-01,
917,1.60e+00,
918,4.84e+00,
919,4.92e+00,
920,4.92e+00,
921,4.92e+00,
922,4.96e+00,
923,4.92e+00,
924,4.96e+00,
925,4.96e+00,
926,5.00e+00,
927,4.92e+00,
928,4.96e+00,
929,4.96e+00,
930,4.92e+00,
931,4.92e+00,
932,4.92e+00,
933,4.92e+00,
934,4.92e+00,
935,5.00e+00,
936,4.92e+00,
937,4.92e+00,
938,7.20e-01,
939,7.20e-01,
940,7.20e-01,
941,7.20e-01,
942,7.20e-01,
943,7.20e-01,
944,7.20e-01,
945,7.60e-01,
946,7.20e-01,
947,7.20e-01,
948,7.20e-01,
949,6.80e-01,
950,7.20e-01,
951,7.20e-01,
952,7.20e-01,
953,7.20e-01,
954,7.20e-01,
955,7.20e-01,
956,7.20e-01,
957,7.20e-01,
958,7.20e-01,
959,4.28e+00,
960,4.92e+00,
961,4.84e+00,
962,4.92e+00,
963,4.92e+00,
964,4.92e+00,
965,4.92e+00,
966,4.92e+00,
967,4.92e+00,
968,4.92e+00,
969,4.96e+00,
970,4.92e+00,
971,4.96e+00,
972,4.96e+00,
973,4.96e+00,
974,4.92e+00,
975,4.92e+00,
976,5.04e+00,
977,4.96e+00,
978,4.92e+00,
979,4.92e+00,
980,6.80e-01,
981,7.20e-01,
982,7.20e-01,
983,7.20e-01,
984,7.20e-01,
985,7.20e-01,
986,7.20e-01,
987,6.80e-01,
988,7.20e-01,
989,7.20e-01,
990,7.20e-01,
991,7.20e-01,
992,7.20e-01,
993,7.20e-01,
994,7.20e-01,
995,7.20e-01,
996,7.20e-01,
997,7.20e-01,
998,7.20e-01,
999,7.20e-01,
1000,7.20e-01,
1001,7.20e-01,
1002,7.20e-01,
1003,7.20e-01,
1004,7.20e-01,
1005,7.20e-01,
1006,7.20e-01,
1007,7.20e-01,
1008,7.20e-01,
1009,7.20e-01,
1010,7.20e-01,
1011,7.20e-01,
1012,7.20e-01,
1013,6.80e-01,
1014,7.20e-01,
1015,6.80e-01,
1016,7.20e-01,
1017,6.80e-01,
1018,7.20e-01,
1019,7.20e-01,
1020,7.20e-01,
1021,7.20e-01,
1022,7.60e-01,
1023,7.20e-01,
1024,7.20e-01,
1025,7.20e-01,
1026,7.20e-01,
1027,7.20e-01,
1028,7.20e-01,
1029,7.20e-01,
1030,7.20e-01,
1031,7.20e-01,
1032,7.20e-01,
1033,7.20e-01,
1034,7.20e-01,
1035,7.20e-01,
1036,7.20e-01,
1037,7.20e-01,
1038,7.20e-01,
1039,7.20e-01,
1040,7.20e-01,
1041,7.20e-01,
1042,7.20e-01,
1043,7.60e-01,
1044,7.20e-01,
1045,7.20e-01,
1046,7.20e-01,
1047,7.20e-01,
1048,7.20e-01,
1049,7.20e-01,
1050,7.20e-01,
1051,7.20e-01,
1052,7.20e-01,
1053,7.20e-01,
1054,7.20e-01,
1055,7.20e-01,
1056,7.20e-01,
1057,7.20e-01,
1058,7.20e-01,
1059,6.80e-01,
1060,7.20e-01,
1061,7.20e-01,
1062,7.20e-01,
1063,8.80e-01,
1064,7.20e-01,
1065,7.20e-01,
1066,7.20e-01,
1067,7.20e-01,
1068,7.20e-01,
1069,7.20e-01,
1070,7.20e-01,
1071,7.20e-01,
1072,7.20e-01,
1073,7.20e-01,
1074,7.20e-01,
1075,7.20e-01,
1076,7.20e-01,
1077,7.20e-01,
1078,7.20e-01,
1079,6.80e-01,
1080,7.20e-01,
1081,7.20e-01,
1082,7.20e-01,
1083,7.20e-01,
1084,4.64e+00,
1085,4.92e+00,
1086,4.92e+00,
1087,4.92e+00,
1088,4.92e+00,
1089,4.92e+00,
1090,4.92e+00,
1091,4.92e+00,
1092,4.92e+00,
1093,4.92e+00,
1094,4.92e+00,
1095,4.92e+00,
1096,4.92e+00,
1097,4.92e+00,
1098,4.92e+00,
1099,4.92e+00,
1100,4.92e+00,
1101,4.92e+00,
1102,4.92e+00,
1103,4.96e+00,
1104,4.84e+00,
1105,7.20e-01,
1106,6.80e-01,
1107,7.20e-01,
1108,7.20e-01,
1109,7.20e-01,
1110,7.20e-01,
1111,7.20e-01,
1112,7.20e-01,
1113,7.20e-01,
1114,7.20e-01,
1115,7.20e-01,
1116,7.20e-01,
1117,7.20e-01,
1118,7.20e-01,
1119,7.20e-01,
1120,7.20e-01,
1121,7.20e-01,
1122,7.20e-01,
1123,7.20e-01,
1124,7.20e-01,
1125,6.80e-01,
1126,7.20e-01,
1127,7.20e-01,
1128,7.20e-01,
1129,7.20e-01,
1130,7.20e-01,
1131,7.20e-01,
1132,7.20e-01,
1133,7.20e-01,
1134,7.20e-01,
1135,7.20e-01,
1136,7.20e-01,
1137,7.20e-01,
1138,7.20e-01,
1139,7.20e-01,
1140,7.20e-01,
1141,7.20e-01,
1142,7.20e-01,
1143,7.20e-01,
1144,6.80e-01,
1145,7.20e-01,
1146,7.60e-01,
1147,7.20e-01,
1148,7.20e-01,
1149,7.20e-01,
1150,8.40e-01,
1151,7.20e-01,
1152,7.20e-01,
1153,7.20e-01,
1154,6.40e-01,
1155,7.20e-01,
1156,6.80e-01,
1157,7.20e-01,
1158,7.20e-01,
1159,7.20e-01,
1160,7.20e-01,
1161,7.20e-01,
1162,7.20e-01,
1163,7.20e-01,
1164,7.20e-01,
1165,7.20e-01,
1166,7.20e-01,
1167,4.24e+00,
1168,4.88e+00,
1169,4.88e+00,
1170,4.92e+00,
1171,4.92e+00,
1172,4.92e+00,
1173,4.92e+00,
1174,4.92e+00,
1175,4.92e+00,
1176,4.92e+00,
1177,4.88e+00,
1178,4.92e+00,
1179,4.88e+00,
1180,4.92e+00,
1181,4.88e+00,
1182,4.88e+00,
1183,4.92e+00,
1184,4.92e+00,
1185,4.92e+00,
1186,4.96e+00,
1187,4.92e+00,
1188,7.20e-01,
1189,7.20e-01,
1190,7.20e-01,
1191,7.20e-01,
1192,7.20e-01,
1193,7.20e-01,
1194,7.20e-01,
1195,7.20e-01,
1196,7.20e-01,
1197,7.20e-01,
1198,7.20e-01,
1199,7.20e-01,
1200,7.20e-01,
1201,7.20e-01,
1202,7.20e-01,
1203,7.20e-01,
1204,7.20e-01,
1205,7.20e-01,
1206,7.20e-01,
1207,7.20e-01,
1208,7.20e-01,
1209,7.20e-01,
1210,7.20e-01,
1211,7.20e-01,
1212,7.20e-01,
1213,7.20e-01,
1214,7.20e-01,
1215,7.20e-01,
1216,7.20e-01,
1217,6.80e-01,
1218,7.20e-01,
1219,7.20e-01,
1220,7.20e-01,
1221,7.20e-01,
1222,7.20e-01,
1223,7.20e-01,
1224,7.20e-01,
1225,7.20e-01,
1226,7.20e-01,
1227,7.20e-01,
1228,7.20e-01,
1229,7.20e-01,
1230,7.20e-01,
1231,7.20e-01,
1232,6.80e-01,
1233,7.20e-01,
1234,7.20e-01,
1235,7.20e-01,
1236,7.20e-01,
1237,7.20e-01,
1238,7.20e-01,
1239,7.20e-01,
1240,7.20e-01,
1241,7.20e-01,
1242,7.20e-01,
1243,7.20e-01,
1244,7.20e-01,
1245,7.20e-01,
1246,7.20e-01,
1247,7.20e-01,
1248,6.80e-01,
1249,7.20e-01,
1250,6.80e-01,
1251,7.20e-01,
1252,7.20e-01,
1253,7.20e-01,
1254,7.20e-01,
1255,7.20e-01,
1256,7.20e-01,
1257,7.20e-01,
1258,8.00e-01,
1259,7.20e-01,
1260,7.20e-01,
1261,7.20e-01,
1262,7.20e-01,
1263,7.20e-01,
1264,7.20e-01,
1265,7.20e-01,
1266,7.20e-01,
1267,7.20e-01,
1268,7.20e-01,
1269,7.20e-01,
1270,7.20e-01,
1271,7.20e-01,
1272,7.20e-01,
1273,7.20e-01,
1274,6.80e-01,
1275,7.20e-01,
1276,7.20e-01,
1277,7.20e-01,
1278,5.60e-01,
1279,7.20e-01,
1280,7.20e-01,
1281,7.20e-01,
1282,7.20e-01,
1283,7.20e-01,
1284,7.20e-01,
1285,7.20e-01,
1286,7.20e-01,
1287,7.20e-01,
1288,7.20e-01,
1289,7.20e-01,
1290,7.20e-01,
1291,7.20e-01,
1292,4.60e+00,
1293,4.92e+00,
1294,4.92e+00,
1295,4.96e+00,
1296,4.88e+00,
1297,4.88e+00,
1298,4.92e+00,
1299,4.92e+00,
1300,4.92e+00,
1301,4.92e+00,
1302,4.92e+00,
1303,4.92e+00,
1304,4.92e+00,
1305,4.92e+00,
1306,4.92e+00,
1307,4.92e+00,
1308,4.92e+00,
1309,4.92e+00,
1310,4.92e+00,
1311,4.92e+00,
1312,4.92e+00,
1313,7.20e-01,
1314,7.20e-01,
1315,7.20e-01,
1316,7.20e-01,
1317,7.20e-01,
1318,7.20e-01,
1319,6.80e-01,
1320,7.20e-01,
1321,7.20e-01,
1322,7.20e-01,
1323,7.20e-01,
1324,7.20e-01,
1325,6.80e-01,
1326,7.20e-01,
1327,7.20e-01,
1328,7.20e-01,
1329,7.20e-01,
1330,7.20e-01,
1331,7.20e-01,
1332,7.20e-01,
1333,7.20e-01,
1334,7.20e-01,
1335,7.20e-01,
1336,7.20e-01,
1337,7.20e-01,
1338,7.20e-01,
1339,7.20e-01,
1340,7.20e-01,
1341,7.20e-01,
1342,7.20e-01,
1343,7.20e-01,
1344,7.20e-01,
1345,7.20e-01,
1346,7.20e-01,
1347,7.20e-01,
1348,7.20e-01,
1349,7.20e-01,
1350,7.20e-01,
1351,7.20e-01,
1352,7.20e-01,
1353,7.20e-01,
1354,7.20e-01,
1355,7.20e-01,
1356,7.20e-01,
1357,7.20e-01,
1358,7.20e-01,
1359,7.20e-01,
1360,8.00e-01,
1361,7.20e-01,
1362,7.20e-01,
1363,7.20e-01,
1364,7.20e-01,
1365,7.20e-01,
1366,7.20e-01,
1367,7.20e-01,
1368,7.20e-01,
1369,7.20e-01,
1370,7.20e-01,
1371,7.20e-01,
1372,7.20e-01,
1373,7.20e-01,
1374,7.20e-01,
1375,7.20e-01,
1376,7.20e-01,
1377,7.20e-01,
1378,6.80e-01,
1379,7.20e-01,
1380,7.20e-01,
1381,7.20e-01,
1382,7.20e-01,
1383,7.20e-01,
1384,7.20e-01,
1385,7.20e-01,
1386,7.20e-01,
1387,7.20e-01,
1388,7.20e-01,
1389,7.20e-01,
1390,7.20e-01,
1391,7.20e-01,
1392,7.20e-01,
1393,7.20e-01,
1394,7.20e-01,
1395,7.20e-01,
1396,7.20e-01,
1397,7.20e-01,
1398,7.20e-01,
1399,7.20e-01,
1400,7.20e-01,
1401,7.20e-01,
1402,7.20e-01,
